<define-tag pagetitle>DLA-3002-1 adminer</define-tag>
<define-tag report_date>2022-05-13</define-tag>
<define-tag secrefs>CVE-2021-43008</define-tag>
<define-tag packages>adminer</define-tag>
<define-tag isvulnerable>yes</define-tag>
<define-tag fixed>yes</define-tag>
<define-tag fixed-section>no</define-tag>

#use wml::debian::security
