<define-tag pagetitle>DSA-4827-1 firefox-esr</define-tag>
<define-tag report_date>2021-1-07</define-tag>
<define-tag secrefs>CVE-2020-16044</define-tag>
<define-tag packages>firefox-esr</define-tag>
<define-tag isvulnerable>yes</define-tag>
<define-tag fixed>yes</define-tag>
<define-tag fixed-section>no</define-tag>

#use wml::debian::security



</dl>
