<define-tag pagetitle>DSA-4960-1 haproxy</define-tag>
<define-tag report_date>2021-8-17</define-tag>
<define-tag secrefs>CVE-2021-39240 CVE-2021-39241 CVE-2021-39242</define-tag>
<define-tag packages>haproxy</define-tag>
<define-tag isvulnerable>yes</define-tag>
<define-tag fixed>yes</define-tag>
<define-tag fixed-section>no</define-tag>

#use wml::debian::security



</dl>
