<define-tag pagetitle>DSA-4836-1 openvswitch</define-tag>
<define-tag report_date>2021-1-22</define-tag>
<define-tag secrefs>CVE-2015-8011 CVE-2020-27827 Bug#980132</define-tag>
<define-tag packages>openvswitch</define-tag>
<define-tag isvulnerable>yes</define-tag>
<define-tag fixed>yes</define-tag>
<define-tag fixed-section>no</define-tag>

#use wml::debian::security



</dl>
