<define-tag pagetitle>DSA-4714-1 chromium</define-tag>
<define-tag report_date>2020-7-01</define-tag>
<define-tag secrefs>CVE-2020-6423 CVE-2020-6430 CVE-2020-6431 CVE-2020-6432 CVE-2020-6433 CVE-2020-6434 CVE-2020-6435 CVE-2020-6436 CVE-2020-6437 CVE-2020-6438 CVE-2020-6439 CVE-2020-6440 CVE-2020-6441 CVE-2020-6442 CVE-2020-6443 CVE-2020-6444 CVE-2020-6445 CVE-2020-6446 CVE-2020-6447 CVE-2020-6448 CVE-2020-6454 CVE-2020-6455 CVE-2020-6456 CVE-2020-6457 CVE-2020-6458 CVE-2020-6459 CVE-2020-6460 CVE-2020-6461 CVE-2020-6462 CVE-2020-6463 CVE-2020-6464 CVE-2020-6465 CVE-2020-6466 CVE-2020-6467 CVE-2020-6468 CVE-2020-6469 CVE-2020-6470 CVE-2020-6471 CVE-2020-6472 CVE-2020-6473 CVE-2020-6474 CVE-2020-6475 CVE-2020-6476 CVE-2020-6478 CVE-2020-6479 CVE-2020-6480 CVE-2020-6481 CVE-2020-6482 CVE-2020-6483 CVE-2020-6484 CVE-2020-6485 CVE-2020-6486 CVE-2020-6487 CVE-2020-6488 CVE-2020-6489 CVE-2020-6490 CVE-2020-6491 CVE-2020-6493 CVE-2020-6494 CVE-2020-6495 CVE-2020-6496 CVE-2020-6497 CVE-2020-6498 CVE-2020-6505 CVE-2020-6506 CVE-2020-6507 CVE-2020-6509 CVE-2020-6831</define-tag>
<define-tag packages>chromium</define-tag>
<define-tag isvulnerable>yes</define-tag>
<define-tag fixed>yes</define-tag>
<define-tag fixed-section>no</define-tag>

#use wml::debian::security



</dl>
