<define-tag pagetitle>DSA-4737-1 xrdp</define-tag>
<define-tag report_date>2020-7-29</define-tag>
<define-tag secrefs>CVE-2020-4044 Bug#964573</define-tag>
<define-tag packages>xrdp</define-tag>
<define-tag isvulnerable>yes</define-tag>
<define-tag fixed>yes</define-tag>
<define-tag fixed-section>no</define-tag>

#use wml::debian::security



</dl>
