<define-tag pagetitle>DLA-2586-1 linux</define-tag>
<define-tag report_date>2021-03-08</define-tag>
<define-tag secrefs>CVE-2019-19318 CVE-2019-19813 CVE-2019-19816 CVE-2020-27815 CVE-2020-27825 CVE-2020-28374 CVE-2020-29568 CVE-2020-29569 CVE-2020-29660 CVE-2020-29661 CVE-2020-36158 CVE-2021-3178 CVE-2021-3347 CVE-2021-26930 CVE-2021-26931 CVE-2021-26932 CVE-2021-27363 CVE-2021-27364 CVE-2021-27365 CVE-2021-28038</define-tag>
<define-tag packages>linux</define-tag>
<define-tag isvulnerable>yes</define-tag>
<define-tag fixed>yes</define-tag>
<define-tag fixed-section>no</define-tag>

#use wml::debian::security

