<define-tag pagetitle>DLA-2723-1 linuxptp</define-tag>
<define-tag report_date>2021-7-31</define-tag>
<define-tag secrefs>CVE-2021-3570</define-tag>
<define-tag packages>linuxptp</define-tag>
<define-tag isvulnerable>yes</define-tag>
<define-tag fixed>yes</define-tag>
<define-tag fixed-section>no</define-tag>

#use wml::debian::security

