<define-tag pagetitle>DLA-2843-1 linux</define-tag>
<define-tag report_date>2021-12-16</define-tag>
<define-tag secrefs>CVE-2020-3702 CVE-2020-16119 CVE-2021-0920 CVE-2021-3612 CVE-2021-3653 CVE-2021-3655 CVE-2021-3679 CVE-2021-3732 CVE-2021-3753 CVE-2021-3760 CVE-2021-20317 CVE-2021-20321 CVE-2021-20322 CVE-2021-22543 CVE-2021-37159 CVE-2021-3816 CVE-2021-38198 CVE-2021-38199 CVE-2021-38204 CVE-2021-3820 CVE-2021-40490 CVE-2021-41864 CVE-2021-42008 CVE-2021-4273 CVE-2021-43389</define-tag>
<define-tag packages>linux</define-tag>
<define-tag isvulnerable>yes</define-tag>
<define-tag fixed>yes</define-tag>
<define-tag fixed-section>no</define-tag>

#use wml::debian::security

