<define-tag pagetitle>DLA-2826-1 mbedtls</define-tag>
<define-tag report_date>2021-11-23</define-tag>
<define-tag secrefs>CVE-2018-9988 CVE-2018-9989 CVE-2020-36475 CVE-2020-36476 CVE-2020-36478 CVE-2021-24119</define-tag>
<define-tag packages>mbedtls</define-tag>
<define-tag isvulnerable>yes</define-tag>
<define-tag fixed>yes</define-tag>
<define-tag fixed-section>no</define-tag>

#use wml::debian::security

