<define-tag pagetitle>DLA-1209-1 sensible-utils</define-tag>
<define-tag report_date>2017-12-15</define-tag>
<define-tag secrefs>CVE-2017-17512 Bug##881767</define-tag>
<define-tag packages>sensible-utils</define-tag>
<define-tag isvulnerable>yes</define-tag>
<define-tag fixed>yes</define-tag>
<define-tag fixed-section>no</define-tag>

#use wml::debian::security

