<define-tag pagetitle>DLA-931-1 freetype</define-tag>
<define-tag report_date>2017-5-6</define-tag>
<define-tag secrefs>CVE-2017-8287 Bug#861308</define-tag>
<define-tag packages>freetype</define-tag>
<define-tag isvulnerable>yes</define-tag>
<define-tag fixed>yes</define-tag>
<define-tag fixed-section>no</define-tag>

#use wml::debian::security

