<define-tag pagetitle>DLA-2499-1 sympa</define-tag>
<define-tag report_date>2020-12-17</define-tag>
<define-tag secrefs>CVE-2020-29668 Bug#976020</define-tag>
<define-tag packages>sympa</define-tag>
<define-tag isvulnerable>yes</define-tag>
<define-tag fixed>yes</define-tag>
<define-tag fixed-section>no</define-tag>

#use wml::debian::security

