<define-tag pagetitle>DLA-2504-1 mediawiki</define-tag>
<define-tag report_date>2020-12-22</define-tag>
<define-tag secrefs>CVE-2020-15005 CVE-2020-35477 CVE-2020-35479 CVE-2020-35480</define-tag>
<define-tag packages>mediawiki</define-tag>
<define-tag isvulnerable>yes</define-tag>
<define-tag fixed>yes</define-tag>
<define-tag fixed-section>no</define-tag>

#use wml::debian::security

