<define-tag pagetitle>DLA-2229-1 php-horde-gollem</define-tag>
<define-tag report_date>2020-05-31</define-tag>
<define-tag secrefs>CVE-2020-8034 Bug#961649</define-tag>
<define-tag packages>php-horde-gollem</define-tag>
<define-tag isvulnerable>yes</define-tag>
<define-tag fixed>yes</define-tag>
<define-tag fixed-section>no</define-tag>

#use wml::debian::security

