<define-tag pagetitle>DLA-1321-1 firefox-esr</define-tag>
<define-tag report_date>2018-3-27</define-tag>
<define-tag secrefs>CVE-2018-5148</define-tag>
<define-tag packages>firefox-esr</define-tag>
<define-tag isvulnerable>yes</define-tag>
<define-tag fixed>yes</define-tag>
<define-tag fixed-section>no</define-tag>

#use wml::debian::security

