<define-tag pagetitle>DLA-1405-1 libgcrypt20</define-tag>
<define-tag report_date>2018-6-29</define-tag>
<define-tag secrefs>CVE-2018-0495</define-tag>
<define-tag packages>libgcrypt20</define-tag>
<define-tag isvulnerable>yes</define-tag>
<define-tag fixed>yes</define-tag>
<define-tag fixed-section>no</define-tag>

#use wml::debian::security

