<define-tag pagetitle>DLA-1680-1 tiff</define-tag>
<define-tag report_date>2019-2-18</define-tag>
<define-tag secrefs>CVE-2018-17000 CVE-2018-19210 CVE-2019-7663</define-tag>
<define-tag packages>tiff</define-tag>
<define-tag isvulnerable>yes</define-tag>
<define-tag fixed>yes</define-tag>
<define-tag fixed-section>no</define-tag>

#use wml::debian::security

