<define-tag pagetitle>DLA-1723-1 cron</define-tag>
<define-tag report_date>2019-3-21</define-tag>
<define-tag secrefs>CVE-2017-9525 CVE-2019-9704 CVE-2019-9705 CVE-2019-9706 Bug#809167</define-tag>
<define-tag packages>cron</define-tag>
<define-tag isvulnerable>yes</define-tag>
<define-tag fixed>yes</define-tag>
<define-tag fixed-section>no</define-tag>

#use wml::debian::security

