<define-tag pagetitle>DLA-1880-1 ghostscript</define-tag>
<define-tag report_date>2019-08-13</define-tag>
<define-tag secrefs>CVE-2019-10216 Bug#934638</define-tag>
<define-tag packages>ghostscript</define-tag>
<define-tag isvulnerable>yes</define-tag>
<define-tag fixed>yes</define-tag>
<define-tag fixed-section>no</define-tag>

#use wml::debian::security

