<define-tag pagetitle>DLA-1984-1 gdal</define-tag>
<define-tag report_date>2019-11-09</define-tag>
<define-tag secrefs>CVE-2019-17545</define-tag>
<define-tag packages>gdal</define-tag>
<define-tag isvulnerable>yes</define-tag>
<define-tag fixed>yes</define-tag>
<define-tag fixed-section>no</define-tag>

#use wml::debian::security

