<define-tag pagetitle>DLA-542-1 pidgin</define-tag>
<define-tag report_date>2016-7-4</define-tag>
<define-tag secrefs>CVE-2016-2365 CVE-2016-2366 CVE-2016-2367 CVE-2016-2368 CVE-2016-2369 CVE-2016-2370 CVE-2016-2371 CVE-2016-2372 CVE-2016-2373 CVE-2016-2374 CVE-2016-2375 CVE-2016-2376 CVE-2016-2377 CVE-2016-2378 CVE-2016-2380 CVE-2016-4323</define-tag>
<define-tag packages>pidgin</define-tag>
<define-tag isvulnerable>yes</define-tag>
<define-tag fixed>yes</define-tag>
<define-tag fixed-section>no</define-tag>

#use wml::debian::security

