<define-tag pagetitle>DLA-564-1 tardiff</define-tag>
<define-tag report_date>2016-7-27</define-tag>
<define-tag secrefs>CVE-2015-0857 CVE-2015-0858</define-tag>
<define-tag packages>tardiff</define-tag>
<define-tag isvulnerable>yes</define-tag>
<define-tag fixed>yes</define-tag>
<define-tag fixed-section>no</define-tag>

#use wml::debian::security

